Dates,Q1,Q2,Q3,Q4,Q5
2017-08-29,0.441257584114727,0.4986960301361924,0.5026722925457102,0.5655021834061136,0.5193249863908547
2017-09-08,0.47205642973412915,0.49505778664611644,0.5179717772604971,0.5655021834061136,0.5193249863908547
2017-09-18,0.5018686599038975,0.4916751748319017,0.5325370823890131,0.5655021834061136,0.5193249863908547
2017-09-28,0.5211216336554777,0.4884488448844885,0.5273897164874422,0.5594810930168369,0.5128487324458174
2017-10-08,0.5314685314685315,0.4847942754919499,0.4996989765201686,0.5470206156452979,0.49943630214205187
2017-10-18,0.4580937445548005,0.4522038817340831,0.4836036036036036,0.5151832460732985,0.4620066075465136
2017-10-28,0.39758342922899886,0.39958469296944527,0.38029850746268656,0.42382427485215435,0.3825503355704698
2017-11-07,0.45154873543620344,0.4252199413489736,0.4264264264264264,0.45899772209567197,0.42945474985947163
2017-11-17,0.46283783783783783,0.43018084790987254,0.43226194052267947,0.4806201550387597,0.4495114006514658
2017-11-27,0.47908496732026146,0.4708304735758408,0.45748418833450455,0.49950478705843515,0.48658035996210924
2017-12-07,0.5170169153253334,0.5048487082150362,0.5240319331798665,0.5435692710328798,0.5265562127708788
2017-12-17,0.5354693364894791,0.52122532539495,0.5531560128153264,0.5654321080232437,0.5463443055906583
2017-12-27,0.5423221750362777,0.5273168231562784,0.5605919518227653,0.5723383322843831,0.5543950349698569
2018-01-06,0.5493398687787998,0.5335983756160962,0.5682422504653017,0.5792996784956649,0.5626285628146843
2018-01-16,0.5565284480232727,0.5400790182867807,0.5761162875527889,0.5863168363478332,0.5710512684881854
2018-01-26,0.5638942234341724,0.5467683639441983,0.5842239910787422,0.5933904529940045,0.5796696669065743
2018-02-05,0.5714438353872497,0.5536766696343668,0.5925760083868968,0.6005211832348132,0.5884906836556281
2018-02-15,0.5791842475386779,0.560814859197124,0.6011834319526628,0.6077097505668935,0.5975215517241379
2018-02-25,0.60521208760743,0.5892751915144372,0.6398467432950191,0.6494902176908239,0.6275149537792278
2018-03-07,0.729227761485826,0.7013142174432497,0.7402155416903006,0.7099236641221374,0.7228689447990988
2018-03-17,0.6737822726721874,0.6532027554497364,0.7021363568664483,0.6909949327025082,0.6643627315454796
2018-03-27,0.6917347429120615,0.675941347997519,0.7270160795384805,0.713433331280619,0.6753778062873942
2018-04-06,0.7536677709417889,0.7394425170474938,0.7905011308177597,0.7689784442361762,0.7346177001806141
2018-04-16,0.8137529137529137,0.8006657610039196,0.8502599653379549,0.8211419060964951,0.7927551788052276
2018-04-26,0.8546716740639582,0.843056508808053,0.8856057643970284,0.8563158184925842,0.8301909026632099
2018-05-06,0.8766670340570925,0.8669613259668508,0.8983908293418008,0.8759847794629937,0.8473415370327374
2018-05-16,0.888299599523758,0.8776923909514016,0.9026083298275137,0.8874691291742726,0.8529242789842583
2018-05-26,0.8815885446605622,0.8684711087798985,0.8915620190296241,0.8829318491085869,0.8415634718421097
2018-06-05,0.8651938683498648,0.8503184713375797,0.8724556084885232,0.8692134831460674,0.8237118320610687
2018-06-15,0.847809259888119,0.8307885994119917,0.85244568815338,0.8549373237077198,0.8048561106049839
2018-06-25,0.8151102768653214,0.7929557353641123,0.8020833333333334,0.8166162438910868,0.8001944579484687
2018-07-05,0.6101452764378228,0.5986797562285963,0.6454024885914459,0.6523933695642982,0.6026215852866321
2018-07-15,0.5643515060990789,0.5851962245404868,0.6083948339483395,0.5711739241151006,0.566497461928934
2018-07-25,0.6853875476493011,0.6699380165289256,0.7072570725707257,0.7063840785732748,0.680905815748842
2018-08-04,0.7412226859808495,0.717549829849295,0.7557740681454379,0.7364150479468896,0.7099426862696238
2018-08-14,0.7641950111764471,0.7321604789041851,0.784242615377355,0.7789602991375171,0.7324414715719063
2018-08-24,0.7361411720948051,0.717554698857955,0.7709090953304661,0.7645592710932894,0.7020941004857052
2018-09-03,0.6532715095311695,0.6722731906218145,0.7121062992125984,0.6898945744407302,0.6164674634794157
2018-09-13,0.6964474678760393,0.6632250227755846,0.7455621301775148,0.7333735484843915,0.6603952569169961
2018-09-23,0.6489332973264921,0.6318848602269582,0.695046439628483,0.6243459102175709,0.5966960979777841
2018-10-03,0.551483870967742,0.49498151082937136,0.49677098857426727,0.5336651820801677,0.4875675675675676
2018-10-13,0.5708915145005371,0.49825783972125437,0.5029831387808041,0.5561704482567792,0.5231599886331344
2018-10-23,0.590945700981191,0.5259391750803605,0.5155433449206072,0.5902891434806329,0.5588805763369354
2018-11-02,0.6109819267595139,0.5536849658936355,0.5287283374154645,0.6234534696073157,0.5928629359286294
2018-11-12,0.6310002681684097,0.5814954276492738,0.5425858698687518,0.6557029177718833,0.6252309316442333
2018-11-22,0.6563402467839328,0.6422054740182467,0.6526133794387552,0.6774856807166985,0.6716922277099038
2018-12-02,0.6654450261780105,0.6507517805328409,0.6575708935259497,0.6728945099166427,0.6786732314071002
